<?xml version="1.0" encoding="UTF-8"?>
<svg width="64px" height="50px" viewBox="0 0 64 50" version="1.1" xmlns="http://www.w3.org/2000/svg" xmlns:xlink="http://www.w3.org/1999/xlink">
    <!-- Generator: Sketch 51.1 (57501) - http://www.bohemiancoding.com/sketch -->
    <title>church</title>
    <desc>Created with Sketch.</desc>
    <defs></defs>
    <g id="Main" stroke="none" stroke-width="1" fill="none" fill-rule="evenodd">
        <g id="About" transform="translate(-32.000000, -400.000000)" fill="#D75A4A" fill-rule="nonzero">
            <g id="OverviewItem" transform="translate(32.000000, 400.000000)">
                <g id="church">
                    <path d="M36.8574089,17.1308411 C36.11956,16.401562 35.1381635,16 34.0943533,16 C33.341359,16 32.6212203,16.2088653 32.0011145,16.5989645 C31.3810087,16.2088653 30.6606258,16 29.9077536,16 C28.8639434,16 27.8826691,16.401562 27.1448201,17.1307205 C26.4066047,17.8597582 26,18.8292747 26,19.8604493 C26,20.8916239 26.4064826,21.8611404 27.144698,22.5902988 L31.3312977,26.7258567 C31.5163401,26.9086591 31.7587884,27 32.0012367,27 C32.2438071,27 32.4862554,26.9085385 32.6712978,26.7258567 L36.8574089,22.5901781 C38.3808637,21.0849239 38.3808637,18.6358541 36.8574089,17.1308411 Z M35.5171645,21.2665197 L32.0009924,24.7402483 L28.484576,21.266399 C28.1043535,20.8907793 27.8948831,20.3914813 27.8948831,19.8603286 C27.8951274,19.3292967 28.1044757,18.8299987 28.4848203,18.4543789 C28.8649206,18.0787592 29.3702146,17.8720657 29.9077536,17.8720657 C30.4454148,17.8720657 30.9509531,18.0788798 31.3311755,18.4544996 C31.5088895,18.6300623 31.7498721,18.7286429 32.0012367,18.7286429 C32.2526012,18.7286429 32.4934617,18.6299416 32.6711757,18.4543789 C33.051276,18.0787592 33.55657,17.8720657 34.0942312,17.8720657 C34.6317702,17.8720657 35.1370642,18.0788798 35.5171645,18.4544996 C36.3017932,19.2297508 36.3017932,20.4912685 35.5171645,21.2665197 Z" id="Shape"></path>
                    <path d="M63.0301269,48.0492284 L60.1211326,48.0492284 L60.1211326,28.6640958 L61.4055051,29.1338098 C61.5150049,29.1737908 61.6268796,29.1927755 61.7367544,29.1927755 C62.1330036,29.1927755 62.5048779,28.9466031 62.6482526,28.5504391 C62.8312523,28.0442644 62.5716278,27.484656 62.0683788,27.3005924 L47.8467815,22.098912 C47.3432825,21.9148485 46.7870336,22.1761081 46.604034,22.682157 C46.4210343,23.1883317 46.6806588,23.7479401 47.1839078,23.9320037 L58.1817614,27.9546214 L58.1817614,48.0491027 L44.6059129,48.0491027 L44.6059129,18.9549964 L45.569786,19.8363388 C45.7120357,19.9435835 45.7260357,19.9521329 45.7401607,19.9603051 C45.8762854,20.0256829 45.8924104,20.0313406 45.9085353,20.0369983 C46.05641,20.0755963 46.07566,20.0781108 46.095035,20.0807511 C46.3235345,20.0900548 46.4215343,20.0742133 46.5134092,20.0450448 C46.6537839,19.9870849 46.6725338,19.9784097 46.6905338,19.9683516 C46.8229085,19.8789601 46.8375335,19.8676447 46.8515335,19.855575 C46.9647833,19.7404096 46.9760332,19.7268311 46.9869082,19.7127497 C47.0729081,19.5814913 47.080033,19.56741 47.087283,19.5530772 C47.1467829,19.4064801 47.1510329,19.3915187 47.1551579,19.3764315 C47.1854078,19.2193992 47.1866578,19.2049406 47.1877828,19.1903563 C47.1896995,19.1494533 47.1909495,17.3900374 47.1915328,13.9121085 C47.1816578,13.7764497 47.1791579,13.7606082 47.1762829,13.7447666 C47.1371579,13.5907517 47.1316579,13.5765446 47.126158,13.5622118 C47.0582831,13.4191351 47.0496581,13.4051795 47.0407831,13.3910981 C46.9470333,13.2653717 46.9369083,13.2543078 46.9267833,13.2433696 C46.8982834,13.2147039 42.2459175,8.95894742 32.9696856,0.476100052 L31.0301894,0.476351505 L17.1255916,13.190313 C17.0323417,13.2890083 17.0224668,13.3015809 17.0125918,13.314405 C16.9257169,13.4470464 16.918842,13.4607506 16.911967,13.4745805 C16.8525921,13.6209261 16.8480921,13.6371448 16.8435921,13.6533635 C16.8143422,13.8070012 16.8129672,13.8224656 16.8117172,13.8381814 C16.8098838,13.8775757 16.8086755,15.549486 16.8080922,18.8539124 C16.7798422,19.2579972 16.8593421,19.5481738 17.0602167,19.7705839 C17.2515913,19.9823073 17.5142158,20.0898034 17.7779653,20.0898034 C18.0107148,20.0898034 18.2442144,20.0060696 18.429964,19.8360874 L19.3939621,18.9546193 L19.3939621,48.048977 L5.81798864,48.048977 L5.81798864,27.9546214 L16.8158422,23.9320037 C17.3192162,23.7479401 17.5788407,23.1883317 17.395716,22.682157 C17.2125914,22.1758566 16.6560925,21.9147228 16.1530935,22.098912 L1.93149623,27.3005924 C1.42812221,27.484656 1.16849772,28.0442644 1.35162236,28.5504391 C1.49487208,28.9467288 1.86674635,29.1927755 2.26299558,29.1927755 C2.37299537,29.1927755 2.48499515,29.1737908 2.59436993,29.1338098 L3.87874242,28.6639701 L3.87874242,48.0492284 L0.969748106,48.0492284 C0.434249152,48.0492284 0,48.4858764 0,49.0246142 C0,49.5632263 0.434124152,50 0.969748106,50 L63.0302519,50 C63.5658758,50 64,49.563352 64,49.0246142 C63.999875,48.4858764 63.5657508,48.0492284 63.0301269,48.0492284 Z M18.7474634,16.90993 L18.7474634,14.343476 L31.9999375,2.2255836 L45.2522866,14.3433503 L45.2522866,16.90993 L32.6521862,5.38860962 C32.6515612,5.38798098 32.6509362,5.38760381 32.6503112,5.3871009 C32.6313113,5.36987638 32.6115613,5.35403484 32.5915613,5.33857049 C32.5858114,5.33404434 32.5801864,5.32888955 32.5744364,5.32448913 C32.5544364,5.30965341 32.5338115,5.29645213 32.5129365,5.28350231 C32.5063115,5.27935333 32.5000615,5.27445 32.4933115,5.27042675 C32.4756866,5.25999146 32.4573116,5.25093915 32.4391866,5.2416354 C32.4288117,5.23635489 32.4186867,5.23032002 32.4081867,5.22529096 C32.3958117,5.21950754 32.3829368,5.21498139 32.3703118,5.20982661 C32.3536868,5.20278592 32.3370618,5.19536806 32.3200619,5.18933319 C32.3153119,5.18769875 32.3103119,5.18656721 32.3055619,5.1850585 C32.250937,5.16682816 32.1950621,5.15299825 32.1386872,5.14482603 C32.1355622,5.14432313 32.1321872,5.14432313 32.1290622,5.14382022 C32.1016873,5.14017415 32.0741874,5.13715672 32.0465624,5.13589945 C31.9008127,5.12885877 31.753938,5.15563851 31.6170632,5.21472994 C31.6086883,5.218376 31.6001883,5.22126771 31.5918133,5.22503951 C31.5790633,5.23094865 31.5668133,5.23824078 31.5543134,5.24477856 C31.5383134,5.2530765 31.5221884,5.26087154 31.5066885,5.2701753 C31.4990635,5.27470145 31.4918135,5.28023342 31.4841885,5.28501102 C31.4643135,5.29758367 31.4445636,5.31015631 31.4254386,5.3243634 C31.4191886,5.32901528 31.4131886,5.33454724 31.4070637,5.33945058 C31.3875637,5.35466348 31.3681887,5.36987638 31.3496888,5.38684945 C31.3489388,5.38747808 31.3483138,5.38798098 31.3475638,5.38860962 L18.7474634,16.90993 Z M31.0301894,48.0492284 L27.7980707,48.0492284 L27.7980707,38.621002 C27.7980707,36.6262261 29.179443,34.9511726 31.0301894,34.5094956 L31.0301894,48.0492284 Z M36.2019293,48.0492284 L32.9696856,48.0492284 L32.9696856,34.5094956 C34.820557,34.9510469 36.2019293,36.6262261 36.2019293,38.621002 L36.2019293,48.0492284 Z M42.6665417,48.0492284 L38.1413005,48.0492284 L38.1413005,38.621002 C38.1413005,35.2149467 35.3863059,32.4440615 31.9999375,32.4440615 C28.6136941,32.4440615 25.8586995,35.2150724 25.8586995,38.621002 L25.8586995,48.0492284 L21.3334583,48.0492284 L21.3334583,17.1816249 L31.9999375,7.42826981 L42.6665417,17.1816249 L42.6665417,48.0492284 Z" id="Shape"></path>
                    <path d="M12.5000615,30 C10.569952,30 9,31.5582988 9,33.4736874 L9,41.0525641 C9,41.5757422 9.42734096,42 9.95459579,42 L15.0454042,42 C15.572536,42 16,41.5758643 16,41.0525641 L16,33.4736874 C16,31.5582988 14.4299249,30 12.5000615,30 Z M14.0908084,40.1052503 L10.9090685,40.1052503 L10.9090685,33.4736874 C10.9090685,32.6030673 11.622739,31.8947497 12.4999385,31.8947497 C13.3771379,31.8947497 14.0908084,32.6030673 14.0908084,33.4736874 L14.0908084,40.1052503 Z" id="Shape"></path>
                    <path d="M51.5,30 C49.5701027,30 48,31.5582988 48,33.4736874 L48,41.0525641 C48,41.5757422 48.4273485,42 48.9546126,42 L54.0453874,42 C54.5726515,42 55,41.5758643 55,41.0525641 L55,33.4736874 C55,31.5582988 53.4298973,30 51.5,30 Z M53.0907749,40.1052503 L49.908979,40.1052503 L49.908979,33.4736874 C49.908979,32.6030673 50.6226621,31.8947497 51.499877,31.8947497 C52.3770918,31.8947497 53.0907749,32.6030673 53.0907749,33.4736874 L53.0907749,40.1052503 Z" id="Shape"></path>
                </g>
            </g>
        </g>
    </g>
</svg>