<?xml version="1.0" encoding="UTF-8"?>
<svg width="59px" height="64px" viewBox="0 0 59 64" version="1.1" xmlns="http://www.w3.org/2000/svg" xmlns:xlink="http://www.w3.org/1999/xlink">
    <!-- Generator: Sketch 52.3 (67297) - http://www.bohemiancoding.com/sketch -->
    <title>wedding-photo</title>
    <desc>Created with Sketch.</desc>
    <g id="Main" stroke="none" stroke-width="1" fill="none" fill-rule="evenodd">
        <g id="Overview" transform="translate(-33.000000, -305.000000)" fill="#D75A4A" fill-rule="nonzero">
            <g id="OverviewItem" transform="translate(33.000000, 305.000000)">
                <g id="wedding-photo" transform="translate(29.650922, 32.371897) rotate(-4.000000) translate(-29.650922, -32.371897) translate(2.650922, 1.871897)">
                    <path d="M29.9525199,7.98815526 C29.2445245,7.28628812 28.302892,6.89968824 27.3011154,6.89968824 C26.6386619,6.89968824 26.0025214,7.06870931 25.443007,7.38612514 C24.8830588,7.06870931 24.2467738,6.89968824 23.5843203,6.89968824 C22.5825437,6.89968824 21.6407667,7.28614488 20.9329158,7.98786879 C19.4712386,9.43615015 19.471094,11.7928481 20.9329158,13.2415592 L24.6502893,16.9237834 C24.8606493,17.1320518 25.1459005,17.2492206 25.4434407,17.2492206 C25.7408364,17.2492206 26.0260875,17.1320518 26.2364476,16.9236402 L29.9523753,13.241416 C31.4140525,11.7928481 31.413908,9.43615015 29.9525199,7.98815526 Z M28.3662169,11.6703795 L25.4432962,14.566799 L22.5193634,11.6703795 C21.9318009,11.0881162 21.9316563,10.1411685 22.5192188,9.55904852 C22.8036025,9.27715576 23.1818169,9.12202879 23.5841757,9.12202879 C23.9868237,9.12202879 24.3654718,9.27729899 24.6502893,9.55947823 C24.8606493,9.76774657 25.1459005,9.88491541 25.4432962,9.88491541 C25.4434407,9.88491541 25.4435853,9.88491541 25.4437299,9.88491541 C25.7412701,9.88477217 26.0265213,9.76760333 26.2367368,9.55904852 C26.5208313,9.27715576 26.8987566,9.12217203 27.3011154,9.12217203 C27.7034742,9.12217203 28.0815441,9.27729899 28.3662169,9.55962147 C28.9534902,10.1413118 28.9533456,11.0882595 28.3662169,11.6703795 Z" id="Shape"></path>
                    <path d="M52.3432382,0 L1.12963684,0 C0.505766243,0 0,0.513203546 0,1.14624817 L0,59.2260239 C0,59.8592163 0.505766243,60.3722721 1.12963684,60.3722721 L52.342947,60.3722721 C52.9668176,60.3722721 53.4725838,59.8590685 53.4725838,59.2260239 L53.4725838,1.14624817 C53.4727294,0.513203546 52.9669632,0 52.3432382,0 Z M51.2133101,58.079628 L2.25941931,58.079628 L2.25941931,48.1449353 L17.6929352,48.1449353 C17.6946827,48.1449353 17.6964303,48.1452309 17.6980322,48.1452309 C17.6983234,48.1452309 17.6986147,48.1452309 17.6989059,48.1452309 C17.6991972,48.1452309 17.6994884,48.1452309 17.6997797,48.1452309 C17.7015272,48.1452309 17.7032748,48.1449353 17.7048767,48.1449353 L51.2133101,48.1449353 L51.2133101,58.079628 Z M19.5817311,22.5438659 C19.5817311,23.1770582 20.0874973,23.690114 20.7113679,23.690114 C21.5162542,23.690114 22.2028905,24.206273 22.4717199,24.9287181 L22.1325521,24.6763278 C22.1200281,24.6668706 22.106776,24.6593343 22.0938151,24.6504681 C22.0805629,24.6413064 22.0674564,24.6321447 22.0537674,24.6235741 C22.0336707,24.6110137 22.0129915,24.5997832 21.9924579,24.5887005 C21.9813902,24.5827897 21.9706137,24.5767311 21.9594004,24.5712637 C21.9363911,24.5597377 21.9132363,24.5496893 21.8897902,24.5399365 C21.8798875,24.5359468 21.8699847,24.5315137 21.8597908,24.5278194 C21.8357622,24.51851 21.8114423,24.5105304 21.7869768,24.5031419 C21.7763459,24.499891 21.7657151,24.4966401 21.7549386,24.4936847 C21.7313468,24.4873306 21.7076095,24.4818631 21.6838721,24.4771345 C21.6710568,24.4746224 21.6583872,24.4721103 21.6454263,24.469746 C21.6237277,24.4663473 21.6018835,24.4635397 21.5798937,24.4611754 C21.5644571,24.4595499 21.5490205,24.4580722 21.5335839,24.4571856 C21.5136329,24.4558557 21.4938275,24.4554124 21.4738764,24.4552646 C21.4565467,24.4551168 21.4393626,24.4551168 21.4220328,24.4558557 C21.4029556,24.4565945 21.3840239,24.4580722 21.3650923,24.4596977 C21.3474713,24.4613232 21.3299959,24.4629486 21.3122293,24.4653129 C21.2924239,24.4679728 21.2729097,24.471667 21.2532499,24.475509 C21.236794,24.4786122 21.2204836,24.4817153 21.2041733,24.4857051 C21.1827659,24.4908771 21.1615042,24.4972311 21.1403882,24.5035852 C21.1296117,24.5068362 21.1186896,24.5090527 21.1079131,24.5127469 C20.526129,24.7088371 18.7791749,25.2176076 17.6983234,25.2176076 C16.617472,25.2176076 14.8709547,24.7089849 14.2894619,24.5128947 C14.2842192,24.5111215 14.2789766,24.5102349 14.273734,24.5084616 C14.2556761,24.5028464 14.237327,24.49797 14.2189779,24.4930936 C14.2004831,24.4882172 14.1819884,24.4828975 14.1634936,24.4790555 C14.1486395,24.4758046 14.1333486,24.4737358 14.1183489,24.4710759 C14.0965047,24.4673817 14.0746605,24.4633919 14.0526706,24.4610276 C14.0407291,24.4596977 14.028642,24.4594022 14.0165549,24.4585155 C13.9919437,24.4565945 13.9673326,24.4546735 13.9428671,24.4545258 C13.9313625,24.454378 13.9198578,24.4552646 13.9084989,24.4554124 C13.8837421,24.4560035 13.8591309,24.4564468 13.8346654,24.4586633 C13.819957,24.4598455 13.8053942,24.4623575 13.790977,24.4642785 C13.7700066,24.4669384 13.7488905,24.4691549 13.7280657,24.4732925 C13.7095709,24.4766912 13.6913674,24.4817153 13.6730183,24.4860007 C13.6562711,24.4899904 13.6392326,24.4935369 13.6227766,24.4984133 C13.6034081,24.5038808 13.5843308,24.5111215 13.5652535,24.5177711 C13.5496713,24.5230908 13.5339435,24.528115 13.5187982,24.5341735 C13.5013228,24.5411187 13.4841387,24.5495416 13.4669546,24.5575211 C13.4500617,24.5653529 13.4331689,24.5727414 13.4168585,24.581312 C13.4020045,24.5891438 13.3875873,24.5978622 13.3730245,24.6062851 C13.3546754,24.6170722 13.3363262,24.6275639 13.3185596,24.6392377 C13.314482,24.6418975 13.3101132,24.6439663 13.3060356,24.6469217 L12.8288124,24.9697981 C13.0685162,22.0903612 15.0448346,20.8254541 19.5815855,20.6544848 L19.5817311,22.5438659 Z M14.1131063,26.8565193 C14.9239633,27.0973836 16.4899018,27.5102517 17.6986147,27.5102517 C18.8924735,27.5102517 20.4349659,27.1075797 21.2541237,26.8653855 L22.5941931,27.8625342 L22.5941931,30.18488 C22.5941931,32.9239358 20.398122,35.1523002 17.6987603,35.1523002 C14.9993986,35.1523002 12.8033275,32.9239358 12.8033275,30.18488 L12.8033275,27.7425454 L12.8036188,27.7425454 L14.1131063,26.8565193 Z M22.9158855,38.9743589 L25.2242358,38.9743589 C25.226129,38.9743589 25.2280221,38.9746544 25.2300609,38.9746544 C26.2682433,38.9746544 27.1128861,39.8317176 27.1128861,40.8851665 L27.1128861,45.8522912 L19.5266837,45.8522912 L22.9158855,38.9743589 Z M17.6989059,44.4353293 L14.3098498,37.5573969 L14.3098498,36.5770939 C15.3191978,37.130343 16.4734458,37.4450921 17.6989059,37.4450921 C18.924366,37.4450921 20.078614,37.1304908 21.0879621,36.5770939 L21.0879621,37.5573969 L17.6989059,44.4353293 Z M15.8709826,45.8522912 L8.28463455,45.8522912 L8.28463455,40.8851665 L8.28478017,40.8851665 C8.28478017,39.8317176 9.12942291,38.9746544 10.1676053,38.9746544 L12.482072,38.9746544 L15.8709826,45.8522912 Z M32.7613615,42.0311192 L41.7990387,42.0311192 C42.4229093,42.0311192 42.9286756,41.5179156 42.9286756,40.884871 L42.9286756,38.9743589 L43.2991534,38.9743589 C43.3010465,38.9743589 43.3029397,38.9746544 43.3049785,38.9746544 C44.3431609,38.9746544 45.1878036,39.8317176 45.1878036,40.8851665 L45.1878036,45.8522912 L29.3725966,45.8522912 L29.3725966,40.8851665 C29.3725966,39.8317176 30.2172394,38.9746544 31.2554218,38.9746544 L31.6317247,38.9746544 L31.6317247,40.884871 C31.6317247,41.5180634 32.1374909,42.0311192 32.7613615,42.0311192 Z M32.3997671,26.7603214 C32.5867535,24.1932692 34.7033117,22.1620294 37.2802001,22.1620294 C38.1934337,22.1620294 39.0485616,22.4176707 39.7810708,22.8612748 L32.3997671,26.7603214 Z M41.4659874,24.5558956 C41.8625326,25.2176076 42.109809,25.9805416 42.1632545,26.7965249 L39.6437435,25.5184663 L41.4659874,24.5558956 Z M37.168649,26.8257833 L42.1756329,29.3656458 L42.1756329,30.1850278 C42.1756329,32.9240836 39.9795618,35.152448 37.2802001,35.152448 C34.5808385,35.152448 32.3847674,32.9240836 32.3847674,30.1850278 L32.3847674,29.3527898 L37.168649,26.8257833 Z M35.3975206,37.8284062 L35.3975206,37.8281107 L35.3975206,37.1882687 C35.9977995,37.3546571 36.6285146,37.4450921 37.2800545,37.4450921 C37.9317401,37.4450921 38.5624552,37.3545094 39.1628797,37.1882687 L39.1628797,37.8281107 C39.1628797,38.4613031 39.6686459,38.9743589 40.2925165,38.9743589 L40.6691107,38.9743589 L40.6691107,39.7386228 L33.8908527,39.7386228 L33.8908527,38.9746544 L34.2678838,38.9746544 C34.8917544,38.9746544 35.3975206,38.4614509 35.3975206,37.8284062 Z M51.2133101,45.852439 L47.4472229,45.8522912 L47.4472229,40.8851665 C47.4472229,38.5718347 45.5957078,36.689251 43.3172112,36.6823058 C43.3131337,36.6823058 43.3092017,36.6817147 43.3052697,36.6817147 L41.4224446,36.6817147 L41.4224446,36.0990595 C43.2438147,34.7816943 44.4350522,32.622486 44.4350522,30.1850278 L44.4350522,27.1294496 C44.4350522,25.3223762 43.7795803,23.6686874 42.6990201,22.3966874 C42.6659626,22.3523566 42.6308662,22.31039 42.5927117,22.2722655 C41.2822048,20.797969 39.3862731,19.8695331 37.2803458,19.8695331 C33.3352817,19.8695331 30.1254937,23.1263733 30.1254937,27.1295974 L30.1254937,28.6372898 C30.1254937,28.6381764 30.1254937,28.639063 30.1254937,28.6399497 L30.1254937,30.1851755 C30.1254937,32.6227816 31.3168768,34.7819898 33.1383926,36.0993551 L33.1383926,36.6821581 L31.2555674,36.6821581 C30.0694269,36.6821581 28.9987694,37.1915196 28.2429598,38.0049908 C27.4896258,37.1941794 26.4237741,36.6858523 25.2422937,36.6824536 C25.2383617,36.6824536 25.2344298,36.6818625 25.2304978,36.6818625 L23.3476726,36.6818625 L23.3476726,34.6333337 C24.2904687,33.4035957 24.8539036,31.8604386 24.8539036,30.1851755 L24.8539036,25.6007739 C24.8539036,23.6806568 23.5779106,22.0582952 21.841296,21.5577998 L21.841296,19.4874011 C21.841296,18.8542087 21.3355298,18.3411529 20.7116592,18.3411529 C17.5971119,18.3411529 15.3956526,18.7521 13.7834044,19.634284 C11.6342255,20.8103816 10.5443451,22.8178305 10.5443451,25.6007739 L10.5443451,27.1211745 C10.5443451,27.1228 10.5443451,27.1242777 10.5443451,27.1259032 L10.5443451,30.1851755 C10.5443451,31.8602908 11.1079257,33.4034479 12.0505761,34.6333337 L12.0505761,36.6821581 L10.167751,36.6821581 C7.88372051,36.6821581 6.0255065,38.5676971 6.0255065,40.8853143 L6.0255065,45.852439 L2.25956494,45.852439 L2.25956494,2.29264411 L51.2133101,2.29264411 L51.2133101,45.852439 Z" id="Shape"></path>
                    <path d="M37.5169095,15.5242985 C31.0967883,15.5242985 25.8738309,20.8157835 25.8738309,27.3197777 C25.8738309,27.950312 26.3782897,28.461214 27.0005476,28.461214 C27.6228055,28.461214 28.1272644,27.9501648 28.1272644,27.3197777 C28.1272644,22.0744976 32.3395611,17.8073182 37.5170548,17.8073182 C42.6945485,17.8073182 46.9068452,22.0746448 46.9068452,27.3197777 C46.9068452,27.950312 47.411304,28.461214 48.0335619,28.461214 C48.6558199,28.461214 49.1602787,27.9501648 49.1602787,27.3197777 C49.1602787,20.8157835 43.9370308,15.5242985 37.5169095,15.5242985 Z" id="Shape"></path>
                    <path d="M34.2358679,51.7476618 L19.2365709,51.7476618 C18.6153223,51.7476618 18.1116816,52.3268794 18.1116816,53.0413533 C18.1116816,53.7559941 18.6153223,54.3350449 19.2365709,54.3350449 L34.2360129,54.3350449 C34.8572616,54.3350449 35.3609022,53.7558273 35.3609022,53.0413533 C35.3609022,52.3268794 34.8572616,51.7476618 34.2358679,51.7476618 Z" id="Shape"></path>
                </g>
            </g>
        </g>
    </g>
</svg>